{
  "active_sessions": [
    {
      "created_timestamp": 1519946470,
      "updated_timestamp": 1538177576,
      "ip_address": "84.226.240.40",
      "user_agent": "Mozilla/5.0 (Macintosh; Intel Mac OS X 10_13_4) AppleWebKit/537.36 (KHTML, like Gecko) Chrome/69.0.3497.100 Safari/537.36",
      "datr_cookie": "z3yY********************",
      "device": "Mac",
      "location": "Lancy, Switzerland",
      "app": "Chrome"
    }
  ]
}